<svg width="124" height="120" viewBox="0 0 124 120" fill="none" xmlns="http://www.w3.org/2000/svg">
<path fill-rule="evenodd" clip-rule="evenodd" d="M5.166 5.128H118.833V114.871H5.166V5.128ZM0 120H124V0H0V120ZM87.73 57.846C90.365 57.846 91.295 57.846 91.553 57.744C91.553 57.385 91.656 57.128 91.656 56.872C91.656 54.102 90.313 48.974 84.94 48.974C79.98 48.974 77.862 53.282 77.345 57.846H87.73ZM77.242 64.872C77.345 71.795 80.652 76.461 88.505 76.461C91.553 76.461 94.188 76.052 96.927 74.872C97.288 74.718 97.547 74.769 97.547 75.231V81.641C97.547 82.154 97.392 82.41 97.03 82.667C94.292 84 90.882 84.616 86.645 84.616C73.005 84.616 67.89 74.616 67.89 63.488C67.89 51.385 74.194 41.487 85.302 41.487C96.565 41.487 100.492 50.872 100.492 58.513C100.492 60.975 100.337 62.975 100.079 63.949C99.975 64.359 99.821 64.513 99.407 64.616C98.374 64.77 95.325 64.975 90.779 64.975H77.242V64.872ZM49.548 59.641C48.102 53.949 44.588 41.538 43.297 35.538H43.193C42.108 41.538 39.266 51.692 37.148 59.641H49.548ZM35.03 67.949L30.948 83.282C30.845 83.692 30.69 83.846 30.173 83.846H22.578C22.061 83.846 21.958 83.692 22.061 83.077L36.735 32.154C36.993 31.231 37.148 30.513 37.251 27.949C37.251 27.59 37.406 27.436 37.665 27.436H48.515C48.876 27.436 49.031 27.539 49.135 27.949L65.565 83.179C65.668 83.589 65.565 83.846 65.151 83.846H56.626C56.213 83.846 55.955 83.692 55.851 83.333L51.615 67.949H35.03Z" fill="black"/>
</svg>
