<svg width="182" height="20" viewBox="0 0 182 20" fill="none" xmlns="http://www.w3.org/2000/svg">
<path d="M18.2538 20L16.8486 16.3029H7.03956L5.62074 20H0L8.1719 0H15.7299L23.9018 20H18.2538ZM8.64939 12.0327H15.2115L12.3738 4.52933H11.5143L8.64939 12.0327Z" fill="black"/>
<path d="M29.2224 4.50205V7.77626H42.633V12.2374H29.2224V15.457H42.633V20H23.9973V0H42.6467V4.50205H29.2224Z" fill="black"/>
<path d="M42.483 0H48.1037L53.9973 15.457H54.8568L60.7231 0H66.3575L58.1856 20H50.6276L42.483 0Z" fill="black"/>
<path d="M66.4665 0H71.6507V20H66.4665V0Z" fill="black"/>
<path d="M92.5375 4.50205H79.1268V7.77626H92.5375V12.2374H79.1268V15.457H92.5375V20H73.8881V0H92.5375V4.50205Z" fill="black"/>
<path d="M92.5102 0H97.94L102.292 15.457H102.619L106.207 0H113.956L117.49 15.457H117.831L122.224 0H127.653L121.555 20H113.629L110.273 4.52933H109.877L106.535 20H98.6085L92.5102 0Z" fill="black"/>
<path d="M133.124 4.50205V7.77626H146.535V12.2374H133.124V15.457H146.535V20H127.899V0H146.548V4.50205H133.124Z" fill="black"/>
<path d="M163.956 20C163.711 19.3315 163.561 18.6767 163.492 18.0082C163.424 17.3397 163.397 16.5211 163.397 15.5252C163.397 14.7749 163.138 14.2156 162.619 13.8063C162.101 13.4106 161.228 13.206 160 13.206H153.165V19.9864H147.926V0H160.082C162.101 0 163.752 0.286494 165.034 0.845839C166.303 1.40518 167.231 2.14188 167.804 3.06958C168.377 3.98363 168.649 5.00682 168.649 6.12551C168.649 7.18963 168.39 8.13097 167.885 8.94952C167.381 9.76808 166.548 10.3956 165.416 10.8049V11.0914C166.276 11.296 166.944 11.5825 167.422 11.9509C167.899 12.3192 168.226 12.7422 168.39 13.2333C168.568 13.7244 168.649 14.2974 168.649 14.9795C168.649 16.0982 168.677 17.0259 168.745 17.7626C168.813 18.513 168.963 19.2497 169.209 20H163.956ZM162.633 8.34925C163.151 7.95362 163.411 7.39427 163.411 6.65757C163.411 5.93452 163.206 5.40246 162.81 5.06139C162.415 4.72033 161.978 4.50205 161.501 4.42019C161.023 4.33834 160.532 4.29741 160 4.29741H153.165V8.94952H160.136C161.282 8.93588 162.115 8.74488 162.633 8.34925Z" fill="black"/>
<path d="M178.868 0.736699C179.714 1.22783 180.382 1.89632 180.873 2.74216C181.364 3.58799 181.61 4.50205 181.61 5.48431C181.61 6.48022 181.364 7.40791 180.873 8.25375C180.382 9.09959 179.714 9.76808 178.868 10.2729C178.022 10.7776 177.108 11.0232 176.112 11.0232C175.116 11.0232 174.202 10.7776 173.37 10.2729C172.524 9.76808 171.855 9.09959 171.364 8.25375C170.873 7.40791 170.628 6.49386 170.628 5.48431C170.628 4.50205 170.873 3.57435 171.364 2.74216C171.855 1.89632 172.524 1.24147 173.37 0.736699C174.216 0.245566 175.13 0 176.112 0C177.108 0 178.022 0.245566 178.868 0.736699ZM178.226 9.11323C178.868 8.74488 179.359 8.24011 179.727 7.61255C180.096 6.97135 180.273 6.27558 180.273 5.48431C180.273 4.70669 180.096 4.01091 179.727 3.38336C179.359 2.7558 178.854 2.25102 178.226 1.88267C177.599 1.51432 176.89 1.33697 176.098 1.33697C175.321 1.33697 174.625 1.51432 173.984 1.88267C173.342 2.25102 172.851 2.7558 172.483 3.38336C172.115 4.01091 171.937 4.72033 171.937 5.48431C171.937 6.26194 172.115 6.97135 172.483 7.61255C172.851 8.25375 173.356 8.74488 173.984 9.11323C174.625 9.48158 175.321 9.65894 176.098 9.65894C176.89 9.65894 177.599 9.48158 178.226 9.11323ZM178.281 5.26603C178.117 5.53888 177.899 5.74352 177.613 5.89359L178.69 8.41746H177.094L176.235 6.09823H175.593V8.41746H174.134V2.59209H176.726C177.231 2.59209 177.653 2.7558 177.995 3.09686C178.336 3.43793 178.513 3.8472 178.513 4.33834C178.527 4.69304 178.445 4.99318 178.281 5.26603ZM175.607 4.92497H176.494C176.685 4.92497 176.835 4.8704 176.958 4.7749C177.081 4.66576 177.135 4.54297 177.135 4.37926C177.135 4.2292 177.081 4.09277 176.958 3.99727C176.835 3.90177 176.685 3.8472 176.508 3.8472H175.621V4.92497H175.607Z" fill="black"/>
</svg>
